…
tidy_excel(df)
## # A tibble: 138 x 3
##      row column                          value
##    <int>  <int>                          <chr>
##  1     1      1 Expanded Homicide Data Table 8
##  2     2      1                 Murder Victims
##  3     3      1           by Weapon, 2004-2008
##  4     4      1                        Weapons
##  5     5      1                          Total
##  6     6      1                Total firearms:
##  7     7      1                       Handguns
##  8     8      1                         Rifles
##  9     9      1                       Shotguns
## 10    10      1                     Other guns
## # ... with 128 more rows
…
The legitimate question now is why can be useful the coordinate-view? What is the advantage with the previous form?

A: It’s possible to take advantage of manipulate data based on the physical position of the template using operations over columns and rows. In fact, tidy_excel apart of reshape data into the coordinate-view is also an example of this. Pay attention to the following code snippet from the function definition of tidy_excel.

# ...from the definition of tidy_excel
  group_by(row) %>%  # group by row index
  filter(!all(is.na(value))) %>%  # discard empty rows (row-groups that contain only NA values)
  group_by(column) %>%  # group by col index
  filter(!all(is.na(value))) # discard empty cols (col-groups that contain only NA values)

We can give more life to the above answer with an example. Imagine that we want to know the index of a header that contain “weapon” and years (2004…2008) of the previous table. Indeed like the data is very small you can know the answer just by looking. But suppose that we have multiple spreadsheets like that and the row index header can vary between the files. In this case it would be useful a way to identify the row-index that contain the header and deal with the particularities of each spreadsheet.

# 4-row
df
## # A tibble: 23 x 6
##                                X1    X2    X3    X4    X5    X6
##                             <chr> <dbl> <dbl> <dbl> <dbl> <dbl>
##  1 Expanded Homicide Data Table 8    NA    NA    NA    NA    NA
##  2                 Murder Victims    NA    NA    NA    NA    NA
##  3           by Weapon, 2004-2008    NA    NA    NA    NA    NA
##  4                        Weapons  2004  2005  2006  2007  2008
##  5                          Total 14210 14965 15087 14916 14180
##  6                Total firearms:  9385 10158 10225 10129  9484
##  7                       Handguns  7286  7565  7836  7398  6755
##  8                         Rifles   403   445   438   453   375
##  9                       Shotguns   507   522   490   457   444
## 10                     Other guns   117   138   107   116    79
## # ... with 13 more rows
…
Now two things will happen, first I will iterate a list (arg_list) over a function, guess which one?…read_excel to read each sheet and store in a list called raw_data. Then I will give a name to each element (dataframe) of the output list raw_data. We need the metainformation to identify each dataframe with his corresponding file and sheet. So using regex we extract from each arg_list element the year and month from the first and second argument respectively. Look how the sheets are in raw_data, you can see the name after the dollar sign.

raw_data <- invoke_map(read_excel, arg_list)

# add metainformation from the names of the files and sheet into the name
# of elemenet list
list_names <- map(arg_list, ~ paste(str_extract(.x[[1]], "[0-9]+"), 
                                    str_extract(.x[[2]], "[aA-zZ]+"), sep = "_"))

names(raw_data) <- list_names
head(raw_data, n = 2)
## $`2013_Enero`
## # A tibble: 1,127 x 25
##    `DETALLE DEUDA VIGENTE`  X__1                     X__2
##                      <chr> <chr>                    <chr>
##  1      BONOS CORPORATIVOS  <NA>                     <NA>
##  2  al 31 de enero de 2013  <NA>                     <NA>
##  3                    <NA>  <NA>                     <NA>
##  4                    <NA>  <NA> *VALOR U.F.(31/01/2013)=
##  5                     Rut  <NA>                 Sociedad
##  6                76675290     K           AD Retail S.A.
##  7                76675290     K           AD Retail S.A.
##  8                94272000     9           AES Gener S.A.
##  9                94272000     9           AES Gener S.A.
## 10                94272000     9           AES Gener S.A.
## # ... with 1,117 more rows, and 22 more variables: X__3 <chr>, X__4 <chr>,
## #   X__5 <chr>, X__6 <chr>, X__7 <chr>, X__8 <chr>, X__9 <chr>,
## #   X__10 <chr>, X__11 <chr>, X__12 <chr>, X__13 <chr>, X__14 <chr>,
## #   X__15 <chr>, X__16 <chr>, X__17 <chr>, X__18 <chr>, X__19 <chr>,
## #   X__20 <chr>, X__21 <chr>, X__22 <chr>, X__23 <chr>, X__24 <chr>
## 
## $`2013_Febrero`
## # A tibble: 1,131 x 25
##        X__1 `DETALLE DEUDA VIGENTE`                     X__2
##       <chr>                   <chr>                    <chr>
##  1     <NA>      BONOS CORPORATIVOS                     <NA>
##  2     <NA>                      al                    41333
##  3     <NA>                    <NA>                     <NA>
##  4     <NA>                    <NA> *VALOR U.F.(28/02/2013)=
##  5      Rut                    <NA>                 Sociedad
##  6     <NA>                    <NA>                     <NA>
##  7 76675290                       K           AD Retail S.A.
##  8 76675290                       K           AD Retail S.A.
##  9 94272000                       9           AES Gener S.A.
## 10 94272000                       9           AES Gener S.A.
## # ... with 1,121 more rows, and 22 more variables: X__3 <chr>, X__4 <chr>,
## #   X__5 <chr>, X__6 <chr>, X__7 <chr>, X__8 <chr>, X__9 <chr>,
## #   X__10 <chr>, X__11 <chr>, X__12 <chr>, X__13 <chr>, X__14 <chr>,
## #   X__15 <chr>, X__16 <chr>, X__17 <chr>, X__18 <chr>, X__19 <chr>,
## #   X__20 <chr>, X__21 <chr>, X__22 <chr>, X__23 <chr>, X__24 <chr>
